{"hash":"2b58948e72b196349bc8b81b8201dec04f593f03","data":{"tag":{"title":"collaboration","belongsTo":{"totalCount":4,"pageInfo":{"totalPages":2,"currentPage":1},"edges":[{"node":{"__typename":"Publication","title":"Basil under distraught","startDate":"17 Jan 2023","path":"/publications/basil/","slug":"basil","summary":"So much stress around!","tags":[{"title":"photosynthesis"},{"title":"collaboration"}]}},{"node":{"__typename":"Publication","title":"Wheat can get stressed, too!!!","startDate":"31 Dec 2022","path":"/publications/wheat/","slug":"wheat","summary":"We're at it AGAIN.","tags":[{"title":"collaboration"}]}},{"node":{"__typename":"Publication","title":"Drought impacts and where to find them","startDate":"30 Aug 2022","path":"/publications/sdhi/","slug":"sdhi","summary":"Maize is stressed, too.","tags":[{"title":"collaboration"}]}}]}}},"context":{}}