{"hash":"2b58948e72b196349bc8b81b8201dec04f593f03","data":{"tag":{"title":"redbud","belongsTo":{"totalCount":5,"pageInfo":{"totalPages":2,"currentPage":1},"edges":[{"node":{"__typename":"Publication","title":"Eastern redbud diversity across native range","startDate":"08 Nov 2021","path":"/publications/redbudbigscale/","slug":"redbudbigscale","summary":"Sampling across native range illuminates redbud's evolutionary history","tags":[{"title":"redbud"}]}},{"node":{"__typename":"News","title":"New papers about Eastern Redbud, Cercis canadensis L.","startDate":"01 May 2020","path":"/news/redbud-meher-paper/","slug":"redbud-meher-paper","summary":"Meher Ony MS publishes her thesis research on redbud diversity.","tags":[{"title":"redbud"},{"title":"diversity"},{"title":"evolutionary history"}]}},{"node":{"__typename":"News","title":"Redbud haplotyping - Trinity Hamm proposal seminar","startDate":"21 Feb 2020","path":"/news/trinity-cpdna-seminar/","slug":"trinity-cpdna-seminar","summary":"Trinity, MS student in the Trigiano lab (I'm her MS committee member), had her Dpt Proposal Seminar.","tags":[{"title":"redbud"},{"title":"cpDNA"}]}}]}}},"context":{}}