{"hash":"2b58948e72b196349bc8b81b8201dec04f593f03","data":{"tag":{"title":"academic life","belongsTo":{"totalCount":7,"pageInfo":{"totalPages":3,"currentPage":1},"edges":[{"node":{"__typename":"News","title":"Invited talk to Harvard - Arnold Arboretum","startDate":"23 May 2022","path":"/news/harvard/","slug":"harvard","summary":"Networking makes friends","tags":[{"title":"academic life"},{"title":"presentation"},{"title":"arboretum"},{"title":" herbarium"}]}},{"node":{"__typename":"News","title":"5-Year Service at UT","startDate":"02 Feb 2022","path":"/news/plaque/","slug":"plaque","summary":"Time flies, when you're sciencing","tags":[{"title":"academic life"},{"title":"everyday life"},{"title":"lab rats are humans too"}]}},{"node":{"__typename":"News","title":"Annual ASHS conference","startDate":"11 Aug 2021","path":"/news/ashs/","slug":"ashs","summary":"Group attendaning the ASHS caps the MS students graduation","tags":[{"title":"research"},{"title":"academic life"},{"title":"conference"},{"title":"research dissemination"}]}}]}}},"context":{}}