{"hash":"5017cd4414a3e9fd076579a062fb01a1c6998ae1","data":{"tag":{"title":"redbud","belongsTo":{"totalCount":4,"pageInfo":{"totalPages":2,"currentPage":2},"edges":[{"node":{"__typename":"Publication","title":"Road trips for redbuds; An assessment of the genetic diversity and spatial distribution of Cercis canadensis in the US","startDate":"07 Aug 2019","path":"/publications/redbud-big-scale-poster/","slug":"redbud-big-scale-poster","summary":"Genetic diversity study of Eastern redbud indicates two distinct genetic clusters across the species native range in the US.","tags":[{"title":"redbud"}]}}]}}},"context":{}}