{"hash":"2b58948e72b196349bc8b81b8201dec04f593f03","data":{"tag":{"title":"invasive species","belongsTo":{"totalCount":5,"pageInfo":{"totalPages":2,"currentPage":2},"edges":[{"node":{"__typename":"News","title":"30th USDA Interagency Research Forum on Invasive Species","startDate":"20 Feb 2020","path":"/news/invasive-species-forum/","slug":"invasive-species-forum","summary":"With my student Shiwnai Sapkota, we attended the exciting Forum on Invasive Species in Annapolis, MD.","tags":[{"title":"invasive species"},{"title":"USDA forum"}]}},{"node":{"__typename":"Project","title":"Aerial detection of invasive callery pear","startDate":"01 Sep 2021","path":"/projects/callery-lasr/","slug":"callery-lasr","summary":"In this endeavor, researchers from SE U.S. will collaborate on aerial detection of invasive Callery pear.","tags":[{"title":"invasive species"}]}}]}}},"context":{}}