{"hash":"2b58948e72b196349bc8b81b8201dec04f593f03","data":{"tag":{"title":"collaboration","belongsTo":{"totalCount":4,"pageInfo":{"totalPages":2,"currentPage":2},"edges":[{"node":{"__typename":"News","title":"Visit to Hidden Hollow nursery","startDate":"20 Aug 2021","path":"/news/nursery/","slug":"nursery","summary":"Visit to collaborating nursery in TN","tags":[{"title":"research"},{"title":"collaboration"},{"title":"applied science"}]}}]}}},"context":{}}