{"hash":"2b58948e72b196349bc8b81b8201dec04f593f03","data":{"tag":{"title":"diversity","belongsTo":{"totalCount":6,"pageInfo":{"totalPages":2,"currentPage":2},"edges":[{"node":{"__typename":"Publication","title":"Species diversity of the invasive Callery pear, Pyrus calleryana, part 1","startDate":"04 Jun 2021","path":"/publications/pyc/","slug":"pyc","summary":"Our paper on species diversity of Callery pear invasive in US to be featured in MDPI Life.","tags":[{"title":"invasive species"},{"title":"diversity"}]}},{"node":{"__typename":"News","title":"New papers about Eastern Redbud, Cercis canadensis L.","startDate":"01 May 2020","path":"/news/redbud-meher-paper/","slug":"redbud-meher-paper","summary":"Meher Ony MS publishes her thesis research on redbud diversity.","tags":[{"title":"redbud"},{"title":"diversity"},{"title":"evolutionary history"}]}},{"node":{"__typename":"Project","title":"Undergrad Student summer research project","startDate":"01 Jun 2022","path":"/projects/pyc4fraf/","slug":"pyc4fraf","summary":"Why did Callery pear escape?","tags":[{"title":"invasive species"},{"title":"diversity"}]}}]}}},"context":{}}