{"hash":"2b58948e72b196349bc8b81b8201dec04f593f03","data":{"tag":{"title":"academic life","belongsTo":{"totalCount":7,"pageInfo":{"totalPages":3,"currentPage":3},"edges":[{"node":{"__typename":"News","title":"Year summary","startDate":"06 Jan 2021","path":"/news/end-of-year/","slug":"end-of-year","summary":"What a year!!!","tags":[{"title":"academic life"},{"title":"science career"},{"title":"publishing"},{"title":"research"}]}}]}}},"context":{}}