{"hash":"2b58948e72b196349bc8b81b8201dec04f593f03","data":{"tag":{"title":"academic life","belongsTo":{"totalCount":5,"pageInfo":{"totalPages":2,"currentPage":2},"edges":[{"node":{"__typename":"News","title":"Month of Equality","startDate":"31 Mar 2021","path":"/news/equality/","slug":"equality","summary":"A tribute and a reminder","tags":[{"title":"academic life"},{"title":"everyday life"},{"title":"lat rats are humans too"}]}},{"node":{"__typename":"News","title":"Year summary","startDate":"06 Jan 2021","path":"/news/end-of-year/","slug":"end-of-year","summary":"What a year!!!","tags":[{"title":"academic life"},{"title":"science career"},{"title":"publishing"},{"title":"research"}]}}]}}},"context":{}}