{"hash":"344557e557cdb19dfce55302177a135b77af9e75","data":{"news":{"totalCount":2,"pageInfo":{"totalPages":2,"currentPage":2},"edges":[{"node":{"id":"aac61edcf55b324b19535aaccf94cf58","title":"News Lorem ipsum","date":"March 7, 2019","summary":"Lorem ipsum dolor sit amet consectetur adipisicing elit. Hic rerum earum quos explicabo suscipit maxime iste qui nihil. Reiciendis asperiores minus necessitatibus","timeToRead":1,"slug":"design-for-developers"}}]}},"context":{}}