{"hash":"2b58948e72b196349bc8b81b8201dec04f593f03","data":{"tag":{"title":"evolutionary history","belongsTo":{"totalCount":5,"pageInfo":{"totalPages":2,"currentPage":1},"edges":[{"node":{"__typename":"Publication","title":"Evolutionary history of Peronospora tabacina, tobacco downy mildew","startDate":"31 May 2021","path":"/publications/ptabacina/","slug":"ptabacina","summary":"Our paper on diversity and history of Peronospora tabacina published in APS Phytopathology.","tags":[{"title":"evolutionary history"}]}},{"node":{"__typename":"Publication","title":"Microsatellites of Viburnum farreri","startDate":"06 Mar 2021","path":"/publications/viburnum01/","slug":"viburnum01","summary":"Our paper on SSRs in fragrant virunum published in MDPI Plants.","tags":[{"title":"plant species diversity"},{"title":"evolutionary history"}]}},{"node":{"__typename":"Publication","title":"Species diversity of Asian dogwood, Cornus kousa","startDate":"11 Jul 2020","path":"/publications/cornus-kousa/","slug":"cornus-kousa","summary":"Our paper on Asian dogwood species diversity published in Ecology and Evolution.","tags":[{"title":"dogwoods"},{"title":"plant species diversity"},{"title":"population genetics"},{"title":"evolutionary history"}]}}]}}},"context":{}}