{"hash":"5ec353a21a466cb7aa61635399e89226177a99c1","data":{"news":{"totalCount":3,"pageInfo":{"totalPages":3,"currentPage":3},"edges":[{"node":{"id":"36424112e1a06eae0c4d65bda90ee8b4","title":"Nowy","date":"February 18, 2020","summary":"Lorem ipsum dolor sit amet consectetur adipisicing elit. Hic rerum earum quos explicabo suscipit maxime iste qui nihil. Reiciendis asperiores minus necessitatibus","timeToRead":1,"slug":"testujemy-slugi"}}]}},"context":{}}