{"hash":"e9bb28e05620b412dfa578a89e967b96692481ca","data":{"tag":{"title":"evolutionary history","belongsTo":{"totalCount":4,"pageInfo":{"totalPages":2,"currentPage":2},"edges":[{"node":{"__typename":"News","title":"New papers about Eastern Redbud, Cercis canadensis L.","startDate":"01 May 2020","path":"/news/redbud-meher-paper/","slug":"redbud-meher-paper","summary":"Meher Ony MS publishes her thesis research on redbud diversity.","tags":[{"title":"redbud"},{"title":"diversity"},{"title":"evolutionary history"}]}}]}}},"context":{}}