{"hash":"5ec353a21a466cb7aa61635399e89226177a99c1","data":{"publications":{"totalCount":2,"pageInfo":{"totalPages":2,"currentPage":2},"edges":[{"node":{"id":"a53e3346a5b4f0d132368b972244eba7","title":"Road trips for redbuds; An assessment of the genetic diversity and spatial distribution of Cercis canadensis in the US","date":"August 7, 2019","summary":"Genetic diversity study of Eastern redbud indicates two distinct genetic clusters across the species native range in the US.","timeToRead":1,"slug":"redbud-big-scale-poster"}}]}},"context":{}}