{"hash":"5ec353a21a466cb7aa61635399e89226177a99c1","data":{"publications":{"totalCount":2,"pageInfo":{"totalPages":2,"currentPage":1},"edges":[{"node":{"id":"d5b72db600581e0f5fd0f787b28c499f","title":"The effect of habitat fragmentation on genetic diversity and differentiation; fine-scale population structure of Cercis canadensis (Eastern Redbud)","date":"February 19, 2020","summary":"Fine-scale genetic diversity study of Eastern redbud indicates two distinct genetic clusters in the Southern Appalachia.","timeToRead":1,"slug":"redbud-fine-scale"}}]}},"context":{}}