{"hash":"2b58948e72b196349bc8b81b8201dec04f593f03","data":{"tag":{"title":"research","belongsTo":{"totalCount":6,"pageInfo":{"totalPages":2,"currentPage":1},"edges":[{"node":{"__typename":"News","title":"Visit to Hidden Hollow nursery","startDate":"20 Aug 2021","path":"/news/nursery/","slug":"nursery","summary":"Visit to collaborating nursery in TN","tags":[{"title":"research"},{"title":"collaboration"},{"title":"applied science"}]}},{"node":{"__typename":"News","title":"Annual ASHS conference","startDate":"11 Aug 2021","path":"/news/ashs/","slug":"ashs","summary":"Group attendaning the ASHS caps the MS students graduation","tags":[{"title":"research"},{"title":"academic life"},{"title":"conference"},{"title":"research dissemination"}]}},{"node":{"__typename":"News","title":"Another MS Student Defended","startDate":"14 Jul 2021","path":"/news/trinity/","slug":"trinity","summary":"Proudly presenting, Trinity P. Hamm MS","tags":[{"title":"research"},{"title":"viburnums"},{"title":"academic life"}]}}]}}},"context":{}}