{"hash":"5a70143cded6ec0c706f10856fd8527e0ae231fa","data":{"news":{"totalCount":2,"pageInfo":{"totalPages":2,"currentPage":1},"edges":[{"node":{"id":"36424112e1a06eae0c4d65bda90ee8b4","title":"Nowy","date":"February 18, 2020","summary":"Lorem ipsum dolor sit amet consectetur adipisicing elit. Hic rerum earum quos explicabo suscipit maxime iste qui nihil. Reiciendis asperiores minus necessitatibus","timeToRead":1,"slug":"testujemy-slugi"}}]}},"context":{}}