{"hash":"e3b0f058a8154c8494ef6b980ba528310a33f077","data":{"people":{"totalCount":2,"pageInfo":{"totalPages":2,"currentPage":1},"edges":[{"node":{"id":"5c3592cbd6bffab079c6debfefdcd772","title":"Marcin Nowicki","date":"February 20, 2020","summary":"Short introduction about the PI","timeToRead":1,"slug":"marcin-nowicki"}}]}},"context":{}}