{"hash":"2b58948e72b196349bc8b81b8201dec04f593f03","data":{"tag":{"title":"research","belongsTo":{"totalCount":6,"pageInfo":{"totalPages":2,"currentPage":2},"edges":[{"node":{"__typename":"News","title":"MS Student Defended","startDate":"15 Jun 2021","path":"/news/shiwani/","slug":"shiwani","summary":"First MS student nears the finish line","tags":[{"title":"research"},{"title":"callery pear"},{"title":"academic life"}]}},{"node":{"__typename":"News","title":"Droning the Dogwoods","startDate":"31 May 2021","path":"/news/drone/","slug":"drone","summary":"New technologies help the classical tree breeding","tags":[{"title":"research"},{"title":"dogwoods"},{"title":"utility traits"}]}},{"node":{"__typename":"News","title":"Year summary","startDate":"06 Jan 2021","path":"/news/end-of-year/","slug":"end-of-year","summary":"What a year!!!","tags":[{"title":"academic life"},{"title":"science career"},{"title":"publishing"},{"title":"research"}]}}]}}},"context":{}}