{"hash":"2b58948e72b196349bc8b81b8201dec04f593f03","data":{"tag":{"title":"diversity","belongsTo":{"totalCount":6,"pageInfo":{"totalPages":2,"currentPage":1},"edges":[{"node":{"__typename":"Project","title":"Undergrad Student summer research project","startDate":null,"path":"/projects/pyc4/","slug":"pyc4","summary":"Why did Callery pear escape?.","tags":[{"title":"invasive species"},{"title":"diversity"}]}},{"node":{"__typename":"Publication","title":"SSR markers of Wegela spp.","startDate":"29 May 2022","path":"/publications/weigela/","slug":"weigela","summary":"Trinity is at it AGAIN.","tags":[{"title":"diversity"}]}},{"node":{"__typename":"Publication","title":"Chloroplast genome of the invasive Pyrus calleryana","startDate":"02 May 2022","path":"/publications/pyc3/","slug":"pyc3","summary":"My first stab at comparative genomics.","tags":[{"title":"invasive species"},{"title":"diversity"}]}}]}}},"context":{}}