{"hash":"e3b0f058a8154c8494ef6b980ba528310a33f077","data":{"people":{"totalCount":2,"pageInfo":{"totalPages":2,"currentPage":2},"edges":[{"node":{"id":"957252c13860b0f533d4358a461b23a8","title":"Shiwani Sapkota","date":"August 1, 2019","summary":"Short introduction about the 1t MS student","timeToRead":1,"slug":"shiwani-sapkota"}}]}},"context":{}}