{"hash":"2b58948e72b196349bc8b81b8201dec04f593f03","data":{"tag":{"title":"invasive species","belongsTo":{"totalCount":4,"pageInfo":{"totalPages":2,"currentPage":1},"edges":[{"node":{"__typename":"Publication","title":"Species diversity of the invasive Callery pear, Pyrus calleryana, part 2 - Fine Scale in SE USA","startDate":"06 Apr 2022","path":"/publications/pyc2/","slug":"pyc2","summary":"Our paper on  diversity of US-invasive Callery pear in Frontiers in Genetics.","tags":[{"title":"invasive species"},{"title":"diversity"}]}},{"node":{"__typename":"Publication","title":"Species diversity of the invasive Callery pear, Pyrus calleryana, part 1","startDate":"04 Jun 2021","path":"/publications/pyc/","slug":"pyc","summary":"Our paper on species diversity of Callery pear invasive in US to be featured in MDPI Life.","tags":[{"title":"invasive species"},{"title":"diversity"}]}},{"node":{"__typename":"News","title":"30th USDA Interagency Research Forum on Invasive Species","startDate":"20 Feb 2020","path":"/news/invasive-species-forum/","slug":"invasive-species-forum","summary":"With my student Shiwnai Sapkota, we attended the exciting Forum on Invasive Species in Annapolis, MD.","tags":[{"title":"invasive species"},{"title":"USDA forum"}]}}]}}},"context":{}}